{
    "name": "Myanmar",
    "alias": "myanmar",
    "description": "",
    "keywords": [],
    "priority": 0,
    "providers": [
        "Modules\\Myanmar\\Providers\\MyanmarServiceProvider"
    ],
    "aliases": {},
    "files": [],
    "requires": []
}
